{
  "warnings": [
    {
      "file": "/Users/omarhussain/Work/Adeva/Yoco/Projects/yoco-payment-sdk-ios-ui/YocoSDK/Classes/Models/PaymentResult.swift",
      "line": 1,
      "symbol": "PaymentResult",
      "symbol_kind": "source.lang.swift.decl.struct",
      "warning": "undocumented"
    },
    {
      "file": "/Users/omarhussain/Work/Adeva/Yoco/Projects/yoco-payment-sdk-ios-ui/YocoSDK/Classes/Models/PaymentResult.swift",
      "line": 27,
      "symbol": "ResultCode",
      "symbol_kind": "source.lang.swift.decl.enum",
      "warning": "undocumented"
    },
    {
      "file": "/Users/omarhussain/Work/Adeva/Yoco/Projects/yoco-payment-sdk-ios-ui/YocoSDK/Classes/Models/PaymentResult.swift",
      "line": 28,
      "symbol": "ResultCode.success",
      "symbol_kind": "source.lang.swift.decl.enumelement",
      "warning": "undocumented"
    },
    {
      "file": "/Users/omarhussain/Work/Adeva/Yoco/Projects/yoco-payment-sdk-ios-ui/YocoSDK/Classes/Models/PaymentResult.swift",
      "line": 29,
      "symbol": "ResultCode.inProgress",
      "symbol_kind": "source.lang.swift.decl.enumelement",
      "warning": "undocumented"
    },
    {
      "file": "/Users/omarhussain/Work/Adeva/Yoco/Projects/yoco-payment-sdk-ios-ui/YocoSDK/Classes/Models/PaymentResult.swift",
      "line": 30,
      "symbol": "ResultCode.failure(_:)",
      "symbol_kind": "source.lang.swift.decl.enumelement",
      "warning": "undocumented"
    },
    {
      "file": "/Users/omarhussain/Work/Adeva/Yoco/Projects/yoco-payment-sdk-ios-ui/YocoSDK/Classes/Models/PaymentResult.swift",
      "line": 31,
      "symbol": "ResultCode.cancelled",
      "symbol_kind": "source.lang.swift.decl.enumelement",
      "warning": "undocumented"
    },
    {
      "file": "/Users/omarhussain/Work/Adeva/Yoco/Projects/yoco-payment-sdk-ios-ui/YocoSDK/Classes/Models/PaymentResult.swift",
      "line": 32,
      "symbol": "ResultCode.permissionDenied",
      "symbol_kind": "source.lang.swift.decl.enumelement",
      "warning": "undocumented"
    },
    {
      "file": "/Users/omarhussain/Work/Adeva/Yoco/Projects/yoco-payment-sdk-ios-ui/YocoSDK/Classes/Models/PaymentResult.swift",
      "line": 33,
      "symbol": "ResultCode.noConnectivity",
      "symbol_kind": "source.lang.swift.decl.enumelement",
      "warning": "undocumented"
    },
    {
      "file": "/Users/omarhussain/Work/Adeva/Yoco/Projects/yoco-payment-sdk-ios-ui/YocoSDK/Classes/Models/PaymentResult.swift",
      "line": 34,
      "symbol": "ResultCode.invalidToken",
      "symbol_kind": "source.lang.swift.decl.enumelement",
      "warning": "undocumented"
    },
    {
      "file": "/Users/omarhussain/Work/Adeva/Yoco/Projects/yoco-payment-sdk-ios-ui/YocoSDK/Classes/Models/PaymentResult.swift",
      "line": 35,
      "symbol": "ResultCode.bluetoothDisabled",
      "symbol_kind": "source.lang.swift.decl.enumelement",
      "warning": "undocumented"
    },
    {
      "file": "/Users/omarhussain/Work/Adeva/Yoco/Projects/yoco-payment-sdk-ios-ui/YocoSDK/Classes/Models/PaymentResult.swift",
      "line": 36,
      "symbol": "ResultCode.cardMachineError",
      "symbol_kind": "source.lang.swift.decl.enumelement",
      "warning": "undocumented"
    },
    {
      "file": "/Users/omarhussain/Work/Adeva/Yoco/Projects/yoco-payment-sdk-ios-ui/YocoSDK/Classes/Models/PaymentResult.swift",
      "line": 39,
      "symbol": "PaymentLookupResultError",
      "symbol_kind": "source.lang.swift.decl.struct",
      "warning": "undocumented"
    },
    {
      "file": "/Users/omarhussain/Work/Adeva/Yoco/Projects/yoco-payment-sdk-ios-ui/YocoSDK/Classes/Models/StaffMember.swift",
      "line": 1,
      "symbol": "YocoStaff",
      "symbol_kind": "source.lang.swift.decl.struct",
      "warning": "undocumented"
    },
    {
      "file": "/Users/omarhussain/Work/Adeva/Yoco/Projects/yoco-payment-sdk-ios-ui/YocoSDK/Classes/Public Interface/Enums.swift",
      "line": 1,
      "symbol": "SupportedCurrency",
      "symbol_kind": "source.lang.swift.decl.enum",
      "warning": "undocumented"
    },
    {
      "file": "/Users/omarhussain/Work/Adeva/Yoco/Projects/yoco-payment-sdk-ios-ui/YocoSDK/Classes/Public Interface/Enums.swift",
      "line": 2,
      "symbol": "SupportedCurrency.mur",
      "symbol_kind": "source.lang.swift.decl.enumelement",
      "warning": "undocumented"
    },
    {
      "file": "/Users/omarhussain/Work/Adeva/Yoco/Projects/yoco-payment-sdk-ios-ui/YocoSDK/Classes/Public Interface/Enums.swift",
      "line": 3,
      "symbol": "SupportedCurrency.zar",
      "symbol_kind": "source.lang.swift.decl.enumelement",
      "warning": "undocumented"
    },
    {
      "file": "/Users/omarhussain/Work/Adeva/Yoco/Projects/yoco-payment-sdk-ios-ui/YocoSDK/Classes/Public Interface/Enums.swift",
      "line": 35,
      "symbol": "PaymentType",
      "symbol_kind": "source.lang.swift.decl.enum",
      "warning": "undocumented"
    },
    {
      "file": "/Users/omarhussain/Work/Adeva/Yoco/Projects/yoco-payment-sdk-ios-ui/YocoSDK/Classes/Public Interface/Enums.swift",
      "line": 36,
      "symbol": "PaymentType.card",
      "symbol_kind": "source.lang.swift.decl.enumelement",
      "warning": "undocumented"
    },
    {
      "file": "/Users/omarhussain/Work/Adeva/Yoco/Projects/yoco-payment-sdk-ios-ui/YocoSDK/Classes/Public Interface/Enums.swift",
      "line": 37,
      "symbol": "PaymentType.cash",
      "symbol_kind": "source.lang.swift.decl.enumelement",
      "warning": "undocumented"
    },
    {
      "file": "/Users/omarhussain/Work/Adeva/Yoco/Projects/yoco-payment-sdk-ios-ui/YocoSDK/Classes/Public Interface/Enums.swift",
      "line": 38,
      "symbol": "PaymentType.qr",
      "symbol_kind": "source.lang.swift.decl.enumelement",
      "warning": "undocumented"
    },
    {
      "file": "/Users/omarhussain/Work/Adeva/Yoco/Projects/yoco-payment-sdk-ios-ui/YocoSDK/Classes/Public Interface/Enums.swift",
      "line": 54,
      "symbol": "Environment",
      "symbol_kind": "source.lang.swift.decl.enum",
      "warning": "undocumented"
    },
    {
      "file": "/Users/omarhussain/Work/Adeva/Yoco/Projects/yoco-payment-sdk-ios-ui/YocoSDK/Classes/Public Interface/Enums.swift",
      "line": 55,
      "symbol": "Environment.production",
      "symbol_kind": "source.lang.swift.decl.enumelement",
      "warning": "undocumented"
    },
    {
      "file": "/Users/omarhussain/Work/Adeva/Yoco/Projects/yoco-payment-sdk-ios-ui/YocoSDK/Classes/Public Interface/Enums.swift",
      "line": 56,
      "symbol": "Environment.staging",
      "symbol_kind": "source.lang.swift.decl.enumelement",
      "warning": "undocumented"
    },
    {
      "file": "/Users/omarhussain/Work/Adeva/Yoco/Projects/yoco-payment-sdk-ios-ui/YocoSDK/Classes/Public Interface/YocoReceiptDelegate.swift",
      "line": 1,
      "symbol": "SupportedReceiptType",
      "symbol_kind": "source.lang.swift.decl.enum",
      "warning": "undocumented"
    },
    {
      "file": "/Users/omarhussain/Work/Adeva/Yoco/Projects/yoco-payment-sdk-ios-ui/YocoSDK/Classes/Public Interface/YocoReceiptDelegate.swift",
      "line": 2,
      "symbol": "SupportedReceiptType.sms",
      "symbol_kind": "source.lang.swift.decl.enumelement",
      "warning": "undocumented"
    },
    {
      "file": "/Users/omarhussain/Work/Adeva/Yoco/Projects/yoco-payment-sdk-ios-ui/YocoSDK/Classes/Public Interface/YocoReceiptDelegate.swift",
      "line": 3,
      "symbol": "SupportedReceiptType.email",
      "symbol_kind": "source.lang.swift.decl.enumelement",
      "warning": "undocumented"
    },
    {
      "file": "/Users/omarhussain/Work/Adeva/Yoco/Projects/yoco-payment-sdk-ios-ui/YocoSDK/Classes/Public Interface/YocoReceiptDelegate.swift",
      "line": 4,
      "symbol": "SupportedReceiptType.print",
      "symbol_kind": "source.lang.swift.decl.enumelement",
      "warning": "undocumented"
    },
    {
      "file": "/Users/omarhussain/Work/Adeva/Yoco/Projects/yoco-payment-sdk-ios-ui/YocoSDK/Classes/Public Interface/YocoReceiptDelegate.swift",
      "line": 40,
      "symbol": "YocoReceiptDelegate",
      "symbol_kind": "source.lang.swift.decl.protocol",
      "warning": "undocumented"
    },
    {
      "file": "/Users/omarhussain/Work/Adeva/Yoco/Projects/yoco-payment-sdk-ios-ui/YocoSDK/Classes/Public Interface/YocoReceiptDelegate.swift",
      "line": 77,
      "symbol": "YocoReceiptDelegate",
      "symbol_kind": "source.lang.swift.decl.extension",
      "warning": "undocumented"
    },
    {
      "file": "/Users/omarhussain/Work/Adeva/Yoco/Projects/yoco-payment-sdk-ios-ui/YocoSDK/Classes/Public Interface/YocoSDK.swift",
      "line": 25,
      "symbol": "Yoco.setCleanUpCallback(callback:)",
      "symbol_kind": "source.lang.swift.decl.function.method.static",
      "warning": "undocumented"
    }
  ],
  "source_directory": "/Users/omarhussain/Work/Adeva/Yoco/Projects/yoco-payment-sdk-ios-ui/Example"
}